<svg width="20" height="20" viewBox="0 0 20 20" fill="none" xmlns="http://www.w3.org/2000/svg">
<path fill-rule="evenodd" clip-rule="evenodd" d="M6.60001 18.075C7.64999 18.525 8.79999 18.75 10 18.75C11.2 18.75 12.35 18.525 13.425 18.05C14.475 17.6 15.4 16.975 16.2 16.175C17 15.4 17.625 14.45 18.075 13.4C18.525 12.35 18.75 11.2 18.75 10C18.75 8.8 18.525 7.64999 18.05 6.575C17.6 5.52499 16.975 4.60001 16.175 3.8C15.4 3 14.45 2.375 13.4 1.925C12.35 1.47501 11.2 1.25 10 1.25C8.79999 1.25 7.64999 1.47501 6.57501 1.95C5.52499 2.39999 4.60001 3.02499 3.79999 3.825C3 4.60001 2.375 5.55 1.92499 6.60001C1.47501 7.64999 1.25 8.8 1.25 10C1.25 11.2 1.47501 12.35 1.95001 13.425C2.39999 14.475 3.02499 15.4 3.82501 16.2C4.60001 17 5.54999 17.625 6.60001 18.075ZM6.10001 0.774994C7.32501 0.25 8.625 0 10 0C11.375 0 12.675 0.25 13.9 0.774994C15.1 1.3 16.175 2.02499 17.075 2.925C18 3.825 18.7 4.875 19.225 6.10001C19.75 7.325 20 8.625 20 10C20 11.375 19.75 12.675 19.225 13.9C18.7 15.1 17.975 16.175 17.075 17.075C16.175 18 15.125 18.7 13.9 19.225C12.675 19.75 11.375 20 10 20C8.625 20 7.32501 19.75 6.10001 19.225C4.89999 18.7 3.85001 17.975 2.92499 17.075C2 16.175 1.29999 15.125 0.774994 13.9C0.25 12.675 0 11.375 0 10C0 8.625 0.25 7.325 0.774994 6.10001C1.29999 4.89999 2.02499 3.825 2.92499 2.925C3.82501 2 4.875 1.3 6.10001 0.774994ZM6.70001 9C6.31342 9 6 9.3134 6 9.7C6 10.0866 6.31342 10.4 6.70001 10.4H13.3C13.6866 10.4 14 10.0866 14 9.7C14 9.3134 13.6866 9 13.3 9H6.70001Z" fill="white"/>
</svg>
