<svg width="21" height="20" viewBox="0 0 21 20" fill="none" xmlns="http://www.w3.org/2000/svg">
<path d="M1.28993 19.901C1.65111 19.901 1.96069 19.802 2.27027 19.5545L10.4742 11.7822L18.5749 19.6535C18.8329 19.901 19.1425 20 19.5037 20C19.8649 20 20.1744 19.901 20.4324 19.6535C20.6904 19.4059 20.7936 19.1089 20.7936 18.7624C20.7936 18.4158 20.6904 18.1188 20.4324 17.8713L12.3317 10L20.6388 2.17822C20.8968 1.93069 21 1.63366 21 1.28713C21 0.940594 20.8968 0.643564 20.6388 0.39604C20.3808 0.148515 20.0713 0.0495049 19.7101 0.0495049C19.3489 0.0495049 19.0393 0.148515 18.7297 0.39604L10.4742 8.21782L2.42506 0.346535C2.16708 0.0990099 1.85749 0 1.49631 0C1.13514 0 0.825553 0.0990099 0.567568 0.346535C0.309582 0.594059 0.206388 0.841584 0.206388 1.23762C0.206388 1.63366 0.309582 1.88119 0.567568 2.12871L8.6683 10L0.412776 17.7228C0.154791 17.9703 0 18.2673 0 18.6139C0 18.9604 0.103194 19.2574 0.361179 19.5049C0.619165 19.802 0.928747 19.901 1.28993 19.901Z" fill="white"/>
</svg>
