<svg width="9" height="20" viewBox="0 0 9 20" fill="none" xmlns="http://www.w3.org/2000/svg">
<path d="M2.25 20H5.625V10H8.68359L9 6.5625H5.625V4.84375C5.625 4.32291 5.69531 3.95833 5.83594 3.75C5.97656 3.54167 6.3164 3.4375 6.85547 3.4375H9V0H5.90625C4.49999 0 3.53906 0.37109 3.02344 1.11328C2.50781 1.85547 2.25 2.99478 2.25 4.53125V6.5625H0V10H2.25V20Z" fill="white"/>
</svg>
