<svg width="23" height="21" viewBox="0 0 23 21" fill="none" xmlns="http://www.w3.org/2000/svg">
<path d="M14.7857 1.67464H8.21429V3.38278H14.7857V1.67464ZM14.7857 0H8.21429V0.904306H14.7857V0ZM20.5686 6.66507H14.7857V4.2201H8.21429V6.66507H2.53L11.5 16.2105L20.5686 6.66507ZM21.0614 14.2344L20.2729 18.488H2.76L1.93857 14.2344H0V21H23V14.2344H21.0614Z" fill="white"/>
</svg>
