<svg width="19" height="22" viewBox="0 0 19 22" fill="none" xmlns="http://www.w3.org/2000/svg">
<path d="M15.3387 14.8411C15.1445 14.6483 14.562 14.5382 13.619 14.5382C14.2569 14.7584 14.7562 14.8686 15.1445 14.8686C15.2555 14.8686 15.3387 14.8686 15.3664 14.8686L15.3387 14.8411ZM7.32263 15.0338C8.43212 14.5932 9.59708 14.2628 10.8453 14.0426C10.8175 14.0426 10.762 13.9875 10.6788 13.9324C10.5956 13.8498 10.5124 13.7947 10.4847 13.7672C9.84671 13.2165 9.31971 12.5006 8.90365 11.592C8.68175 12.3079 8.34891 13.1064 7.87737 14.015C7.62774 14.4831 7.46131 14.8135 7.32263 15.0338ZM8.87591 6.91114C8.76496 7.24155 8.73723 7.79224 8.84818 8.53567C8.84818 8.4806 8.87591 8.28786 8.93139 7.98498C8.93139 7.95745 8.95912 7.79224 9.0146 7.46183C9.0146 7.43429 9.04234 7.40676 9.07007 7.35169V7.32415V7.29662C9.07007 7.29662 9.07007 7.29662 9.07007 7.26909C9.07007 7.07634 9.0146 6.93867 8.90365 6.82854C8.87591 6.85607 8.87591 6.8836 8.87591 6.91114ZM3.93869 18.2278C4.35474 18.035 4.93723 17.3742 5.63066 16.2728C5.2146 16.6033 4.85401 16.9337 4.54891 17.3191C4.2438 17.7046 4.04963 17.98 3.93869 18.2278ZM11.0672 13.1615C11.3445 13.3817 11.6774 13.602 12.1212 13.8498C12.6204 13.7947 13.092 13.7672 13.5635 13.7672C14.7839 13.7672 15.5051 13.9599 15.7547 14.373C15.8934 14.5657 15.8934 14.7584 15.7825 15.0063V15.0338L15.7547 15.0613C15.6993 15.3642 15.4219 15.5294 14.8672 15.5294C14.4788 15.5294 14.0073 15.4468 13.4526 15.2816C12.8978 15.1164 12.3708 14.8961 11.8438 14.6208C10.0131 14.8135 8.40438 15.1439 6.98978 15.6395C5.71387 17.7872 4.71533 18.8611 3.99416 18.8611C3.88321 18.8611 3.74453 18.8335 3.66131 18.7785L3.32847 18.6408C3.32847 18.6408 3.30073 18.6133 3.24526 18.5857C3.16204 18.5031 3.13431 18.3655 3.16204 18.1452C3.24526 17.8148 3.46715 17.4293 3.85547 17.0163C4.2438 16.6033 4.79854 16.1902 5.49197 15.8323C5.60292 15.7497 5.71387 15.7772 5.76934 15.9149C5.79708 15.9424 5.79708 15.9424 5.79708 15.97C6.21314 15.2816 6.65693 14.4556 7.12847 13.5469C7.68321 12.4456 8.12701 11.3717 8.40438 10.3254C8.21022 9.66458 8.07153 9.00375 8.01606 8.37046C7.96058 7.73717 7.98832 7.21402 8.09927 6.801C8.18248 6.47059 8.37664 6.30538 8.62628 6.30538H8.87591C9.07007 6.30538 9.20876 6.36045 9.31971 6.49812C9.45839 6.66333 9.51387 6.93867 9.43066 7.32415C9.40292 7.37922 9.40292 7.40676 9.37518 7.43429C9.37518 7.46183 9.37518 7.48936 9.37518 7.54443V7.90238C9.34745 8.92115 9.29197 9.69211 9.20876 10.2703C9.70803 11.592 10.3182 12.5557 11.0672 13.1615ZM17.4467 20.4581V7.87484H12.2876C11.9547 7.87484 11.6774 7.76471 11.4555 7.54443C11.2336 7.32415 11.1226 7.04881 11.1226 6.7184V1.56946H1.58102V20.4581H17.4467ZM12.6759 1.6796V6.30538H17.3358C17.2526 6.05757 17.1693 5.89236 17.0584 5.80976L13.1752 1.95494C13.092 1.84481 12.9255 1.7622 12.6759 1.6796ZM18.1679 4.68085C18.3898 4.90113 18.5839 5.23154 18.7504 5.61702C18.9168 6.0025 19 6.36045 19 6.69086V20.8436C19 21.174 18.8891 21.4493 18.6672 21.6696C18.4453 21.8899 18.1679 22 17.835 22H1.1927C0.859854 22 0.582482 21.8899 0.360584 21.6696C0.138686 21.4493 0 21.174 0 20.8436V1.18398C0 0.853567 0.110949 0.578223 0.332847 0.357947C0.554745 0.137672 0.859854 0 1.1927 0H12.2876C12.6204 0 12.981 0.0826032 13.3693 0.24781C13.7577 0.413016 14.0905 0.605757 14.3124 0.826033L18.1679 4.68085Z" fill="#164FA0"/>
</svg>
